{
  "plans": [
    {
      "sequence": 1,
      "label": "Plan 1",
      "template": {
        "elements": [
          {
            "label": "Unlimited bus", "icon": "bus", "variable": "bus",
            "values": [
              { "status": true, "value": 1 }
            ]
          },
          {
            "label": "Unlimited bike-sharing", "icon": "bike", "variable": "bs",
            "values": [
              { "status": true, "value": 1 },
              { "status": false, "value": 0 }
            ]
          }
        ],
        "multi_prices": false,
        "prices": [
          60,
          61.90,
          63.90,
          65,
          66,
          68,
          70
        ],
        "actual_price": 63.84
      }
    },

    {
      "sequence": 2,
      "label": "Plan 2",
      "template": {
        "elements": [
          {
            "label": "Unlimited public transport (bus-tram-metro)", "icon": "public_transport", "variable": "pt",
            "values": [
              { "status": true, "value": 1 }
            ]
          },
          {
            "label": "Unlimited bike-sharing", "icon": "bike", "variable": "bs",
            "values": [
              { "status": true, "value": 1 },
              { "status": false, "value": 0 }
            ]
          }
        ],
        "multi_prices": false,
        "prices": [
          81.90,
          84,
          85,
          87.50,
          89,
          90
        ],
        "actual_price": 87.1
      }
    },

    {
      "sequence": 3,
      "label": "Plan 3",
      "template": {
        "elements": [
          {
            "label": "Unlimited public transport (bus-tram-metro)", "icon": "public_transport", "variable": "pt",
            "values": [
              { "status": true, "value": 1 },
              { "status": false, "value": 0 }
            ]
          },
          {
            "label": "Unlimited bike-sharing", "icon": "bike", "variable": "bs",
            "values": [
              { "status": true, "value": 1 },
              { "status": false, "value": 0 }
            ]
          },
          {
            "label": "Taxi", "icon": "taxi", "variable": "tx",
            "values": [
              { "status": true, "sub_label": "2 trips", "value": 1 },
              { "status": true, "sub_label": "4 trips", "value": 2 }
            ]
          }
        ],
        "multi_prices": true,
        "prices": [
          [
            112,
            115,
            119,
            122.90,
            125,
            129,
            129.90,
            131,
            133.90,
            135,
            135.90
          ],

          [
            149,
            150,
            151,
            152.90,
            154,
            155,
            159,
            161,
            165,
            165.90,
            166,
            167,
            167.90,
            169.00,
            169.90,
            170
          ],

          [
            50,
            55,
            60,
            65,
            69,
            70,
            75,
            80,
            82,
            85
          ]
        ],
        "actual_price": 122.09
      }
    }
  ]
}
