{
  "plans": [
    {
      "sequence": 1,
      "label": "Get me there",
      "sub_label": "Save money",
      "template": {
        "elements": [
          {
            "label": "Public transport (bus-tram-metro)", "icon": "public_transport", "variable": "pt",
            "values": [
              { "status": true, "value": 1 }
            ]
          },
          {
            "label": "Bike-sharing", "icon": "bike", "variable": "bs",
            "values": [
              { "status": true, "value": 1 }
            ]
          },
          {
            "label": "Standard taxi for city trips", "icon": "taxi", "variable": "tx",
            "values": [
              { "status": true, "value": 66 }
            ]
          }
        ],
        "prices": [
          90,
          95,
          99,
          100,
          105,
          109.90,
          115,
          120,
          125,
          129.90,
          135.90,
          139.90,
          145.90,
          149.90,
          150
        ],
        "actual_price": 120
      }
    },

    {
      "sequence": 2,
      "label": "Get me there",
      "sub_label": "Save time and money",
      "template": {
        "elements": [
          {
            "label": "Public transport (bus-tram-metro)", "icon": "public_transport", "variable": "pt",
            "values": [
              { "status": true, "value": 1 }
            ]
          },
          {
            "label": "Saloon taxi for city trips", "icon": "taxi", "variable": "tx",
            "values": [
              { "status": true, "value": 77 },
              { "status": false, "value": 0 }
            ]
          },
          {
            "label": "Car-sharing", "icon": "car_sharing", "variable": "cs",
            "values": [
              { "status": true, "value": 77 },
              { "status": false, "value": 0 }
            ]
          },
          {
            "label": "Bike-sharing", "icon": "bike", "variable": "bs",
            "values": [
              { "status": true, "value": 1 }
            ]
          }
        ],
        "prices": [
          150,
          169,
          179,
          181,
          184,
          189,
          199,
          201,
          205,
          209,
          210.90,
          215,
          219,
          225,
          230,
          235,
          250
        ],
        "actual_price": 181
      }
    },

    {
      "sequence": 3,
      "label": "Get me there",
      "sub_label": "Fast & Luxurious",
      "template": {
        "elements": [
          {
            "label": "Luxury taxi for city trips and trips to the airport", "icon": "taxi", "variable": "tx",
            "values": [
              { "status": true, "value": 88 }
            ]
          },
          {
            "label": "Car-sharing", "icon": "car_sharing", "variable": "cs",
            "values": [
              { "status": true, "value": 88 }
            ]
          },
          {
            "label": "Public transport (bus-tram-metro)", "icon": "public_transport", "variable": "pt",
            "values": [
              { "status": true, "value": 1 },
              { "status": false, "value": 0 }
            ]
          },
          {
            "label": "Bike-sharing", "icon": "bike", "variable": "bs",
            "values": [
              { "status": true, "value": 1 },
              { "status": false, "value": 0 }
            ]
          }
        ],
        "prices": [
          400,
          420,
          449,
          475,
          490,
          500,
          549,
          569,
          582.90,
          584.90,
          589,
          599,
          600,
          610,
          613.00,
          615.90,
          619.90,
          650,
          659
        ],
        "actual_price": 500
      }
    }
  ]
}
