{
  "attributes": [
    {
      "block": 1,
      "page": 1,
      "alt1.public_transport": 1,
      "alt1.bike_sharing": 0.5,
      "alt1.taxi": 8,
      "alt1.car_sharing": 15,
      "alt1.plan_fee": 10,
      "alt1.contract_level": 0,
      "alt2.public_transport": 3,
      "alt2.bike_sharing": 0.3,
      "alt2.taxi": 6,
      "alt2.car_sharing": 14,
      "alt2.contract_level": 3,
      "alt2.plan_fee": 0.88,
      "alt3.public_transport": 4,
      "alt3.bike_sharing": 0.3,
      "alt3.taxi": 6,
      "alt3.car_sharing": 10,
      "alt3.contract_level": 2,
      "alt3.plan_fee": 1.15
    },
    {
      "block": 1,
      "page": 2,
      "alt1.public_transport": 1,
      "alt1.bike_sharing": 0.5,
      "alt1.taxi": 12,
      "alt1.car_sharing": 15,
      "alt1.plan_fee": 20,
      "alt1.contract_level": 0,
      "alt2.public_transport": 2,
      "alt2.bike_sharing": 0.25,
      "alt2.taxi": 8,
      "alt2.car_sharing": 12,
      "alt2.contract_level": 1,
      "alt2.plan_fee": 0.95,
      "alt3.public_transport": 4,
      "alt3.bike_sharing": 0.25,
      "alt3.taxi": 5,
      "alt3.car_sharing": 10,
      "alt3.contract_level": 1,
      "alt3.plan_fee": 0.85
    },
    {
      "block": 1,
      "page": 3,
      "alt1.public_transport": 1,
      "alt1.bike_sharing": 0.5,
      "alt1.taxi": 10,
      "alt1.car_sharing": 14,
      "alt1.plan_fee": 20,
      "alt1.contract_level": 0,
      "alt2.public_transport": 2,
      "alt2.bike_sharing": 0.3,
      "alt2.taxi": 5.5,
      "alt2.car_sharing": 13,
      "alt2.contract_level": 1,
      "alt2.plan_fee": 0.85,
      "alt3.public_transport": 5,
      "alt3.bike_sharing": 0.25,
      "alt3.taxi": 5.5,
      "alt3.car_sharing": 8,
      "alt3.contract_level": 1,
      "alt3.plan_fee": 1.05
    },
    {
      "block": 2,
      "page": 1,
      "alt1.public_transport": 1,
      "alt1.bike_sharing": 0.7,
      "alt1.taxi": 10,
      "alt1.car_sharing": 15,
      "alt1.plan_fee": 18,
      "alt1.contract_level": 0,
      "alt2.public_transport": 3,
      "alt2.bike_sharing": 0.6,
      "alt2.taxi": 10,
      "alt2.car_sharing": 14,
      "alt2.contract_level": 3,
      "alt2.plan_fee": 1,
      "alt3.public_transport": 4,
      "alt3.bike_sharing": 0.5,
      "alt3.taxi": 5.5,
      "alt3.car_sharing": 10,
      "alt3.contract_level": 1,
      "alt3.plan_fee": 1
    },
    {
      "block": 2,
      "page": 2,
      "alt1.public_transport": 1,
      "alt1.bike_sharing": 0.6,
      "alt1.taxi": 10,
      "alt1.car_sharing": 12,
      "alt1.plan_fee": 5,
      "alt1.contract_level": 0,
      "alt2.public_transport": 3,
      "alt2.bike_sharing": 0.25,
      "alt2.taxi": 5.5,
      "alt2.car_sharing": 10,
      "alt2.contract_level": 3,
      "alt2.plan_fee": 1.15,
      "alt3.public_transport": 5,
      "alt3.bike_sharing": 0.25,
      "alt3.taxi": 5.5,
      "alt3.car_sharing": 10,
      "alt3.contract_level": 1,
      "alt3.plan_fee": 0.85
    },
    {
      "block": 2,
      "page": 3,
      "alt1.public_transport": 1,
      "alt1.bike_sharing": 0.7,
      "alt1.taxi": 10,
      "alt1.car_sharing": 13,
      "alt1.plan_fee": 5,
      "alt1.contract_level": 0,
      "alt2.public_transport": 2,
      "alt2.bike_sharing": 0.6,
      "alt2.taxi": 6,
      "alt2.car_sharing": 12,
      "alt2.contract_level": 1,
      "alt2.plan_fee": 1.2,
      "alt3.public_transport": 4,
      "alt3.bike_sharing": 0.2,
      "alt3.taxi": 5,
      "alt3.car_sharing": 8,
      "alt3.contract_level": 1,
      "alt3.plan_fee": 1.12
    },
    {
      "block": 3,
      "page": 1,
      "alt1.public_transport": 1,
      "alt1.bike_sharing": 0.6,
      "alt1.taxi": 8,
      "alt1.car_sharing": 13,
      "alt1.plan_fee": 5,
      "alt1.contract_level": 0,
      "alt2.public_transport": 2,
      "alt2.bike_sharing": 0.6,
      "alt2.taxi": 8,
      "alt2.car_sharing": 13,
      "alt2.contract_level": 1,
      "alt2.plan_fee": 1.15,
      "alt3.public_transport": 5,
      "alt3.bike_sharing": 0.2,
      "alt3.taxi": 5.5,
      "alt3.car_sharing": 12,
      "alt3.contract_level": 4,
      "alt3.plan_fee": 1.12
    },
    {
      "block": 3,
      "page": 2,
      "alt1.public_transport": 1,
      "alt1.bike_sharing": 0.3,
      "alt1.taxi": 12,
      "alt1.car_sharing": 12,
      "alt1.plan_fee": 20,
      "alt1.contract_level": 0,
      "alt2.public_transport": 2,
      "alt2.bike_sharing": 0.3,
      "alt2.taxi": 8,
      "alt2.car_sharing": 12,
      "alt2.contract_level": 2,
      "alt2.plan_fee": 1.05,
      "alt3.public_transport": 4,
      "alt3.bike_sharing": 0.2,
      "alt3.taxi": 5.5,
      "alt3.car_sharing": 10,
      "alt3.contract_level": 2,
      "alt3.plan_fee": 0.8
    },
    {
      "block": 3,
      "page": 3,
      "alt1.public_transport": 1,
      "alt1.bike_sharing": 0.5,
      "alt1.taxi": 10,
      "alt1.car_sharing": 15,
      "alt1.plan_fee": 18,
      "alt1.contract_level": 0,
      "alt2.public_transport": 2,
      "alt2.bike_sharing": 0.25,
      "alt2.taxi": 6,
      "alt2.car_sharing": 10,
      "alt2.contract_level": 2,
      "alt2.plan_fee": 0.95,
      "alt3.public_transport": 5,
      "alt3.bike_sharing": 0.25,
      "alt3.taxi": 5,
      "alt3.car_sharing": 8,
      "alt3.contract_level": 2,
      "alt3.plan_fee": 1.2
    },
    {
      "block": 4,
      "page": 1,
      "alt1.public_transport": 1,
      "alt1.bike_sharing": 0.7,
      "alt1.taxi": 10,
      "alt1.car_sharing": 14,
      "alt1.plan_fee": 0,
      "alt1.contract_level": 0,
      "alt2.public_transport": 3,
      "alt2.bike_sharing": 0.3,
      "alt2.taxi": 10,
      "alt2.car_sharing": 14,
      "alt2.contract_level": 3,
      "alt2.plan_fee": 0.8,
      "alt3.public_transport": 5,
      "alt3.bike_sharing": 0.2,
      "alt3.taxi": 6,
      "alt3.car_sharing": 8,
      "alt3.contract_level": 1,
      "alt3.plan_fee": 0.95
    },
    {
      "block": 4,
      "page": 2,
      "alt1.public_transport": 1,
      "alt1.bike_sharing": 0.6,
      "alt1.taxi": 8,
      "alt1.car_sharing": 14,
      "alt1.plan_fee": 20,
      "alt1.contract_level": 0,
      "alt2.public_transport": 3,
      "alt2.bike_sharing": 0.3,
      "alt2.taxi": 5.5,
      "alt2.car_sharing": 10,
      "alt2.contract_level": 1,
      "alt2.plan_fee": 1.05,
      "alt3.public_transport": 4,
      "alt3.bike_sharing": 0.3,
      "alt3.taxi": 5,
      "alt3.car_sharing": 8,
      "alt3.contract_level": 3,
      "alt3.plan_fee": 1.05
    },
    {
      "block": 4,
      "page": 3,
      "alt1.public_transport": 1,
      "alt1.bike_sharing": 0.6,
      "alt1.taxi": 8,
      "alt1.car_sharing": 12,
      "alt1.plan_fee": 10,
      "alt1.contract_level": 0,
      "alt2.public_transport": 3,
      "alt2.bike_sharing": 0.6,
      "alt2.taxi": 6,
      "alt2.car_sharing": 12,
      "alt2.contract_level": 1,
      "alt2.plan_fee": 0.88,
      "alt3.public_transport": 5,
      "alt3.bike_sharing": 0.2,
      "alt3.taxi": 6,
      "alt3.car_sharing": 12,
      "alt3.contract_level": 3,
      "alt3.plan_fee": 0.85
    },
    {
      "block": 5,
      "page": 1,
      "alt1.public_transport": 1,
      "alt1.bike_sharing": 0.6,
      "alt1.taxi": 8,
      "alt1.car_sharing": 15,
      "alt1.plan_fee": 10,
      "alt1.contract_level": 0,
      "alt2.public_transport": 3,
      "alt2.bike_sharing": 0.6,
      "alt2.taxi": 8,
      "alt2.car_sharing": 14,
      "alt2.contract_level": 2,
      "alt2.plan_fee": 1,
      "alt3.public_transport": 4,
      "alt3.bike_sharing": 0.2,
      "alt3.taxi": 5,
      "alt3.car_sharing": 12,
      "alt3.contract_level": 3,
      "alt3.plan_fee": 1.2
    },
    {
      "block": 5,
      "page": 2,
      "alt1.public_transport": 1,
      "alt1.bike_sharing": 0.7,
      "alt1.taxi": 12,
      "alt1.car_sharing": 13,
      "alt1.plan_fee": 18,
      "alt1.contract_level": 0,
      "alt2.public_transport": 2,
      "alt2.bike_sharing": 0.6,
      "alt2.taxi": 10,
      "alt2.car_sharing": 13,
      "alt2.contract_level": 2,
      "alt2.plan_fee": 0.8,
      "alt3.public_transport": 4,
      "alt3.bike_sharing": 0.25,
      "alt3.taxi": 6,
      "alt3.car_sharing": 12,
      "alt3.contract_level": 1,
      "alt3.plan_fee": 1
    },
    {
      "block": 5,
      "page": 3,
      "alt1.public_transport": 1,
      "alt1.bike_sharing": 0.3,
      "alt1.taxi": 8,
      "alt1.car_sharing": 15,
      "alt1.plan_fee": 18,
      "alt1.contract_level": 0,
      "alt2.public_transport": 3,
      "alt2.bike_sharing": 0.25,
      "alt2.taxi": 6,
      "alt2.car_sharing": 14,
      "alt2.contract_level": 2,
      "alt2.plan_fee": 1.12,
      "alt3.public_transport": 4,
      "alt3.bike_sharing": 0.2,
      "alt3.taxi": 5.5,
      "alt3.car_sharing": 8,
      "alt3.contract_level": 3,
      "alt3.plan_fee": 0.88
    },
    {
      "block": 6,
      "page": 1,
      "alt1.public_transport": 1,
      "alt1.bike_sharing": 0.6,
      "alt1.taxi": 12,
      "alt1.car_sharing": 14,
      "alt1.plan_fee": 20,
      "alt1.contract_level": 0,
      "alt2.public_transport": 3,
      "alt2.bike_sharing": 0.5,
      "alt2.taxi": 10,
      "alt2.car_sharing": 14,
      "alt2.contract_level": 2,
      "alt2.plan_fee": 1.15,
      "alt3.public_transport": 5,
      "alt3.bike_sharing": 0.5,
      "alt3.taxi": 5,
      "alt3.car_sharing": 12,
      "alt3.contract_level": 3,
      "alt3.plan_fee": 1.15
    },
    {
      "block": 6,
      "page": 2,
      "alt1.public_transport": 1,
      "alt1.bike_sharing": 0.7,
      "alt1.taxi": 10,
      "alt1.car_sharing": 15,
      "alt1.plan_fee": 18,
      "alt1.contract_level": 0,
      "alt2.public_transport": 3,
      "alt2.bike_sharing": 0.5,
      "alt2.taxi": 10,
      "alt2.car_sharing": 12,
      "alt2.contract_level": 2,
      "alt2.plan_fee": 1,
      "alt3.public_transport": 4,
      "alt3.bike_sharing": 0.5,
      "alt3.taxi": 8,
      "alt3.car_sharing": 10,
      "alt3.contract_level": 4,
      "alt3.plan_fee": 1.05
    },
    {
      "block": 6,
      "page": 3,
      "alt1.public_transport": 1,
      "alt1.bike_sharing": 0.6,
      "alt1.taxi": 12,
      "alt1.car_sharing": 14,
      "alt1.plan_fee": 20,
      "alt1.contract_level": 0,
      "alt2.public_transport": 3,
      "alt2.bike_sharing": 0.3,
      "alt2.taxi": 8,
      "alt2.car_sharing": 10,
      "alt2.contract_level": 1,
      "alt2.plan_fee": 1.15,
      "alt3.public_transport": 4,
      "alt3.bike_sharing": 0.3,
      "alt3.taxi": 8,
      "alt3.car_sharing": 8,
      "alt3.contract_level": 3,
      "alt3.plan_fee": 1.12
    },
    {
      "block": 7,
      "page": 1,
      "alt1.public_transport": 1,
      "alt1.bike_sharing": 0.7,
      "alt1.taxi": 12,
      "alt1.car_sharing": 15,
      "alt1.plan_fee": 20,
      "alt1.contract_level": 0,
      "alt2.public_transport": 2,
      "alt2.bike_sharing": 0.25,
      "alt2.taxi": 8,
      "alt2.car_sharing": 13,
      "alt2.contract_level": 3,
      "alt2.plan_fee": 0.95,
      "alt3.public_transport": 5,
      "alt3.bike_sharing": 0.25,
      "alt3.taxi": 5.5,
      "alt3.car_sharing": 12,
      "alt3.contract_level": 1,
      "alt3.plan_fee": 1.12
    },
    {
      "block": 7,
      "page": 2,
      "alt1.public_transport": 1,
      "alt1.bike_sharing": 0.7,
      "alt1.taxi": 8,
      "alt1.car_sharing": 12,
      "alt1.plan_fee": 10,
      "alt1.contract_level": 0,
      "alt2.public_transport": 2,
      "alt2.bike_sharing": 0.25,
      "alt2.taxi": 8,
      "alt2.car_sharing": 12,
      "alt2.contract_level": 1,
      "alt2.plan_fee": 1.2,
      "alt3.public_transport": 5,
      "alt3.bike_sharing": 0.25,
      "alt3.taxi": 5.5,
      "alt3.car_sharing": 10,
      "alt3.contract_level": 4,
      "alt3.plan_fee": 1.12
    },
    {
      "block": 7,
      "page": 3,
      "alt1.public_transport": 1,
      "alt1.bike_sharing": 0.6,
      "alt1.taxi": 8,
      "alt1.car_sharing": 14,
      "alt1.plan_fee": 5,
      "alt1.contract_level": 0,
      "alt2.public_transport": 2,
      "alt2.bike_sharing": 0.3,
      "alt2.taxi": 6,
      "alt2.car_sharing": 12,
      "alt2.contract_level": 3,
      "alt2.plan_fee": 1.05,
      "alt3.public_transport": 4,
      "alt3.bike_sharing": 0.2,
      "alt3.taxi": 5,
      "alt3.car_sharing": 8,
      "alt3.contract_level": 3,
      "alt3.plan_fee": 1.15
    },
    {
      "block": 8,
      "page": 1,
      "alt1.public_transport": 1,
      "alt1.bike_sharing": 0.5,
      "alt1.taxi": 8,
      "alt1.car_sharing": 15,
      "alt1.plan_fee": 20,
      "alt1.contract_level": 0,
      "alt2.public_transport": 2,
      "alt2.bike_sharing": 0.3,
      "alt2.taxi": 8,
      "alt2.car_sharing": 14,
      "alt2.contract_level": 3,
      "alt2.plan_fee": 1.15,
      "alt3.public_transport": 4,
      "alt3.bike_sharing": 0.3,
      "alt3.taxi": 8,
      "alt3.car_sharing": 8,
      "alt3.contract_level": 1,
      "alt3.plan_fee": 0.95
    },
    {
      "block": 8,
      "page": 2,
      "alt1.public_transport": 1,
      "alt1.bike_sharing": 0.7,
      "alt1.taxi": 10,
      "alt1.car_sharing": 14,
      "alt1.plan_fee": 18,
      "alt1.contract_level": 0,
      "alt2.public_transport": 3,
      "alt2.bike_sharing": 0.6,
      "alt2.taxi": 8,
      "alt2.car_sharing": 10,
      "alt2.contract_level": 1,
      "alt2.plan_fee": 0.85,
      "alt3.public_transport": 4,
      "alt3.bike_sharing": 0.3,
      "alt3.taxi": 5,
      "alt3.car_sharing": 8,
      "alt3.contract_level": 4,
      "alt3.plan_fee": 1.15
    },
    {
      "block": 8,
      "page": 3,
      "alt1.public_transport": 1,
      "alt1.bike_sharing": 0.7,
      "alt1.taxi": 12,
      "alt1.car_sharing": 12,
      "alt1.plan_fee": 0,
      "alt1.contract_level": 0,
      "alt2.public_transport": 3,
      "alt2.bike_sharing": 0.5,
      "alt2.taxi": 10,
      "alt2.car_sharing": 12,
      "alt2.contract_level": 1,
      "alt2.plan_fee": 0.95,
      "alt3.public_transport": 5,
      "alt3.bike_sharing": 0.2,
      "alt3.taxi": 5,
      "alt3.car_sharing": 12,
      "alt3.contract_level": 3,
      "alt3.plan_fee": 1.2
    },
    {
      "block": 9,
      "page": 1,
      "alt1.public_transport": 1,
      "alt1.bike_sharing": 0.6,
      "alt1.taxi": 12,
      "alt1.car_sharing": 12,
      "alt1.plan_fee": 18,
      "alt1.contract_level": 0,
      "alt2.public_transport": 3,
      "alt2.bike_sharing": 0.3,
      "alt2.taxi": 10,
      "alt2.car_sharing": 12,
      "alt2.contract_level": 1,
      "alt2.plan_fee": 0.88,
      "alt3.public_transport": 4,
      "alt3.bike_sharing": 0.2,
      "alt3.taxi": 5.5,
      "alt3.car_sharing": 8,
      "alt3.contract_level": 3,
      "alt3.plan_fee": 0.8
    },
    {
      "block": 9,
      "page": 2,
      "alt1.public_transport": 1,
      "alt1.bike_sharing": 0.6,
      "alt1.taxi": 12,
      "alt1.car_sharing": 14,
      "alt1.plan_fee": 10,
      "alt1.contract_level": 0,
      "alt2.public_transport": 3,
      "alt2.bike_sharing": 0.6,
      "alt2.taxi": 5.5,
      "alt2.car_sharing": 13,
      "alt2.contract_level": 3,
      "alt2.plan_fee": 1.05,
      "alt3.public_transport": 4,
      "alt3.bike_sharing": 0.5,
      "alt3.taxi": 5,
      "alt3.car_sharing": 13,
      "alt3.contract_level": 2,
      "alt3.plan_fee": 1
    },
    {
      "block": 9,
      "page": 3,
      "alt1.public_transport": 1,
      "alt1.bike_sharing": 0.6,
      "alt1.taxi": 12,
      "alt1.car_sharing": 14,
      "alt1.plan_fee": 10,
      "alt1.contract_level": 0,
      "alt2.public_transport": 2,
      "alt2.bike_sharing": 0.6,
      "alt2.taxi": 8,
      "alt2.car_sharing": 13,
      "alt2.contract_level": 2,
      "alt2.plan_fee": 0.85,
      "alt3.public_transport": 5,
      "alt3.bike_sharing": 0.5,
      "alt3.taxi": 6,
      "alt3.car_sharing": 13,
      "alt3.contract_level": 3,
      "alt3.plan_fee": 0.88
    },
    {
      "block": 10,
      "page": 1,
      "alt1.public_transport": 1,
      "alt1.bike_sharing": 0.7,
      "alt1.taxi": 8,
      "alt1.car_sharing": 14,
      "alt1.plan_fee": 18,
      "alt1.contract_level": 0,
      "alt2.public_transport": 2,
      "alt2.bike_sharing": 0.6,
      "alt2.taxi": 8,
      "alt2.car_sharing": 12,
      "alt2.contract_level": 1,
      "alt2.plan_fee": 1.05,
      "alt3.public_transport": 5,
      "alt3.bike_sharing": 0.3,
      "alt3.taxi": 6,
      "alt3.car_sharing": 10,
      "alt3.contract_level": 2,
      "alt3.plan_fee": 0.8
    },
    {
      "block": 10,
      "page": 2,
      "alt1.public_transport": 1,
      "alt1.bike_sharing": 0.6,
      "alt1.taxi": 12,
      "alt1.car_sharing": 15,
      "alt1.plan_fee": 20,
      "alt1.contract_level": 0,
      "alt2.public_transport": 3,
      "alt2.bike_sharing": 0.5,
      "alt2.taxi": 5.5,
      "alt2.car_sharing": 12,
      "alt2.contract_level": 3,
      "alt2.plan_fee": 1.05,
      "alt3.public_transport": 4,
      "alt3.bike_sharing": 0.5,
      "alt3.taxi": 5,
      "alt3.car_sharing": 12,
      "alt3.contract_level": 1,
      "alt3.plan_fee": 0.95
    },
    {
      "block": 10,
      "page": 3,
      "alt1.public_transport": 1,
      "alt1.bike_sharing": 0.7,
      "alt1.taxi": 8,
      "alt1.car_sharing": 14,
      "alt1.plan_fee": 10,
      "alt1.contract_level": 0,
      "alt2.public_transport": 2,
      "alt2.bike_sharing": 0.25,
      "alt2.taxi": 8,
      "alt2.car_sharing": 12,
      "alt2.contract_level": 3,
      "alt2.plan_fee": 1.05,
      "alt3.public_transport": 5,
      "alt3.bike_sharing": 0.25,
      "alt3.taxi": 5,
      "alt3.car_sharing": 12,
      "alt3.contract_level": 3,
      "alt3.plan_fee": 1
    },
    {
      "block": 11,
      "page": 1,
      "alt1.public_transport": 1,
      "alt1.bike_sharing": 0.7,
      "alt1.taxi": 8,
      "alt1.car_sharing": 12,
      "alt1.plan_fee": 18,
      "alt1.contract_level": 0,
      "alt2.public_transport": 2,
      "alt2.bike_sharing": 0.5,
      "alt2.taxi": 6,
      "alt2.car_sharing": 10,
      "alt2.contract_level": 1,
      "alt2.plan_fee": 0.8,
      "alt3.public_transport": 5,
      "alt3.bike_sharing": 0.25,
      "alt3.taxi": 5,
      "alt3.car_sharing": 8,
      "alt3.contract_level": 3,
      "alt3.plan_fee": 1
    },
    {
      "block": 11,
      "page": 2,
      "alt1.public_transport": 1,
      "alt1.bike_sharing": 0.7,
      "alt1.taxi": 12,
      "alt1.car_sharing": 13,
      "alt1.plan_fee": 0,
      "alt1.contract_level": 0,
      "alt2.public_transport": 3,
      "alt2.bike_sharing": 0.25,
      "alt2.taxi": 10,
      "alt2.car_sharing": 13,
      "alt2.contract_level": 2,
      "alt2.plan_fee": 0.85,
      "alt3.public_transport": 4,
      "alt3.bike_sharing": 0.25,
      "alt3.taxi": 5,
      "alt3.car_sharing": 8,
      "alt3.contract_level": 1,
      "alt3.plan_fee": 1.2
    },
    {
      "block": 11,
      "page": 3,
      "alt1.public_transport": 1,
      "alt1.bike_sharing": 0.7,
      "alt1.taxi": 8,
      "alt1.car_sharing": 14,
      "alt1.plan_fee": 10,
      "alt1.contract_level": 0,
      "alt2.public_transport": 2,
      "alt2.bike_sharing": 0.6,
      "alt2.taxi": 5.5,
      "alt2.car_sharing": 14,
      "alt2.contract_level": 3,
      "alt2.plan_fee": 0.95,
      "alt3.public_transport": 5,
      "alt3.bike_sharing": 0.2,
      "alt3.taxi": 5.5,
      "alt3.car_sharing": 10,
      "alt3.contract_level": 4,
      "alt3.plan_fee": 1.05
    },
    {
      "block": 12,
      "page": 1,
      "alt1.public_transport": 1,
      "alt1.bike_sharing": 0.3,
      "alt1.taxi": 8,
      "alt1.car_sharing": 14,
      "alt1.plan_fee": 10,
      "alt1.contract_level": 0,
      "alt2.public_transport": 3,
      "alt2.bike_sharing": 0.3,
      "alt2.taxi": 6,
      "alt2.car_sharing": 14,
      "alt2.contract_level": 3,
      "alt2.plan_fee": 0.88,
      "alt3.public_transport": 5,
      "alt3.bike_sharing": 0.25,
      "alt3.taxi": 5,
      "alt3.car_sharing": 12,
      "alt3.contract_level": 1,
      "alt3.plan_fee": 1.2
    },
    {
      "block": 12,
      "page": 2,
      "alt1.public_transport": 1,
      "alt1.bike_sharing": 0.3,
      "alt1.taxi": 10,
      "alt1.car_sharing": 12,
      "alt1.plan_fee": 18,
      "alt1.contract_level": 0,
      "alt2.public_transport": 2,
      "alt2.bike_sharing": 0.3,
      "alt2.taxi": 10,
      "alt2.car_sharing": 12,
      "alt2.contract_level": 1,
      "alt2.plan_fee": 1.2,
      "alt3.public_transport": 4,
      "alt3.bike_sharing": 0.3,
      "alt3.taxi": 8,
      "alt3.car_sharing": 12,
      "alt3.contract_level": 2,
      "alt3.plan_fee": 1.15
    },
    {
      "block": 12,
      "page": 3,
      "alt1.public_transport": 1,
      "alt1.bike_sharing": 0.5,
      "alt1.taxi": 8,
      "alt1.car_sharing": 15,
      "alt1.plan_fee": 18,
      "alt1.contract_level": 0,
      "alt2.public_transport": 2,
      "alt2.bike_sharing": 0.5,
      "alt2.taxi": 5.5,
      "alt2.car_sharing": 13,
      "alt2.contract_level": 2,
      "alt2.plan_fee": 0.95,
      "alt3.public_transport": 5,
      "alt3.bike_sharing": 0.2,
      "alt3.taxi": 5,
      "alt3.car_sharing": 8,
      "alt3.contract_level": 1,
      "alt3.plan_fee": 1.15
    },
    {
      "block": 13,
      "page": 1,
      "alt1.public_transport": 1,
      "alt1.bike_sharing": 0.6,
      "alt1.taxi": 12,
      "alt1.car_sharing": 15,
      "alt1.plan_fee": 5,
      "alt1.contract_level": 0,
      "alt2.public_transport": 2,
      "alt2.bike_sharing": 0.3,
      "alt2.taxi": 5.5,
      "alt2.car_sharing": 10,
      "alt2.contract_level": 3,
      "alt2.plan_fee": 0.95,
      "alt3.public_transport": 5,
      "alt3.bike_sharing": 0.2,
      "alt3.taxi": 5.5,
      "alt3.car_sharing": 8,
      "alt3.contract_level": 4,
      "alt3.plan_fee": 1.12
    },
    {
      "block": 13,
      "page": 2,
      "alt1.public_transport": 1,
      "alt1.bike_sharing": 0.3,
      "alt1.taxi": 10,
      "alt1.car_sharing": 14,
      "alt1.plan_fee": 0,
      "alt1.contract_level": 0,
      "alt2.public_transport": 3,
      "alt2.bike_sharing": 0.25,
      "alt2.taxi": 8,
      "alt2.car_sharing": 13,
      "alt2.contract_level": 1,
      "alt2.plan_fee": 0.85,
      "alt3.public_transport": 5,
      "alt3.bike_sharing": 0.25,
      "alt3.taxi": 6,
      "alt3.car_sharing": 8,
      "alt3.contract_level": 4,
      "alt3.plan_fee": 1.15
    },
    {
      "block": 13,
      "page": 3,
      "alt1.public_transport": 1,
      "alt1.bike_sharing": 0.6,
      "alt1.taxi": 12,
      "alt1.car_sharing": 13,
      "alt1.plan_fee": 0,
      "alt1.contract_level": 0,
      "alt2.public_transport": 2,
      "alt2.bike_sharing": 0.25,
      "alt2.taxi": 6,
      "alt2.car_sharing": 13,
      "alt2.contract_level": 3,
      "alt2.plan_fee": 1.12,
      "alt3.public_transport": 5,
      "alt3.bike_sharing": 0.25,
      "alt3.taxi": 5.5,
      "alt3.car_sharing": 13,
      "alt3.contract_level": 3,
      "alt3.plan_fee": 0.95
    },
    {
      "block": 14,
      "page": 1,
      "alt1.public_transport": 1,
      "alt1.bike_sharing": 0.6,
      "alt1.taxi": 10,
      "alt1.car_sharing": 13,
      "alt1.plan_fee": 18,
      "alt1.contract_level": 0,
      "alt2.public_transport": 2,
      "alt2.bike_sharing": 0.3,
      "alt2.taxi": 8,
      "alt2.car_sharing": 13,
      "alt2.contract_level": 2,
      "alt2.plan_fee": 0.85,
      "alt3.public_transport": 4,
      "alt3.bike_sharing": 0.25,
      "alt3.taxi": 6,
      "alt3.car_sharing": 10,
      "alt3.contract_level": 3,
      "alt3.plan_fee": 1.05
    },
    {
      "block": 14,
      "page": 2,
      "alt1.public_transport": 1,
      "alt1.bike_sharing": 0.6,
      "alt1.taxi": 8,
      "alt1.car_sharing": 12,
      "alt1.plan_fee": 5,
      "alt1.contract_level": 0,
      "alt2.public_transport": 2,
      "alt2.bike_sharing": 0.3,
      "alt2.taxi": 8,
      "alt2.car_sharing": 10,
      "alt2.contract_level": 2,
      "alt2.plan_fee": 1.15,
      "alt3.public_transport": 5,
      "alt3.bike_sharing": 0.25,
      "alt3.taxi": 5.5,
      "alt3.car_sharing": 10,
      "alt3.contract_level": 1,
      "alt3.plan_fee": 1.2
    },
    {
      "block": 14,
      "page": 3,
      "alt1.public_transport": 1,
      "alt1.bike_sharing": 0.5,
      "alt1.taxi": 8,
      "alt1.car_sharing": 13,
      "alt1.plan_fee": 20,
      "alt1.contract_level": 0,
      "alt2.public_transport": 2,
      "alt2.bike_sharing": 0.5,
      "alt2.taxi": 6,
      "alt2.car_sharing": 13,
      "alt2.contract_level": 1,
      "alt2.plan_fee": 0.8,
      "alt3.public_transport": 4,
      "alt3.bike_sharing": 0.3,
      "alt3.taxi": 5,
      "alt3.car_sharing": 10,
      "alt3.contract_level": 4,
      "alt3.plan_fee": 0.85
    },
    {
      "block": 15,
      "page": 1,
      "alt1.public_transport": 1,
      "alt1.bike_sharing": 0.7,
      "alt1.taxi": 12,
      "alt1.car_sharing": 13,
      "alt1.plan_fee": 0,
      "alt1.contract_level": 0,
      "alt2.public_transport": 2,
      "alt2.bike_sharing": 0.25,
      "alt2.taxi": 8,
      "alt2.car_sharing": 10,
      "alt2.contract_level": 2,
      "alt2.plan_fee": 1,
      "alt3.public_transport": 5,
      "alt3.bike_sharing": 0.2,
      "alt3.taxi": 5.5,
      "alt3.car_sharing": 8,
      "alt3.contract_level": 3,
      "alt3.plan_fee": 0.85
    },
    {
      "block": 15,
      "page": 2,
      "alt1.public_transport": 1,
      "alt1.bike_sharing": 0.5,
      "alt1.taxi": 12,
      "alt1.car_sharing": 14,
      "alt1.plan_fee": 5,
      "alt1.contract_level": 0,
      "alt2.public_transport": 3,
      "alt2.bike_sharing": 0.3,
      "alt2.taxi": 8,
      "alt2.car_sharing": 10,
      "alt2.contract_level": 1,
      "alt2.plan_fee": 0.85,
      "alt3.public_transport": 4,
      "alt3.bike_sharing": 0.3,
      "alt3.taxi": 6,
      "alt3.car_sharing": 8,
      "alt3.contract_level": 4,
      "alt3.plan_fee": 0.8
    },
    {
      "block": 15,
      "page": 3,
      "alt1.public_transport": 1,
      "alt1.bike_sharing": 0.7,
      "alt1.taxi": 10,
      "alt1.car_sharing": 15,
      "alt1.plan_fee": 10,
      "alt1.contract_level": 0,
      "alt2.public_transport": 2,
      "alt2.bike_sharing": 0.6,
      "alt2.taxi": 10,
      "alt2.car_sharing": 10,
      "alt2.contract_level": 3,
      "alt2.plan_fee": 0.8,
      "alt3.public_transport": 4,
      "alt3.bike_sharing": 0.5,
      "alt3.taxi": 5.5,
      "alt3.car_sharing": 8,
      "alt3.contract_level": 4,
      "alt3.plan_fee": 0.8
    },
    {
      "block": 16,
      "page": 1,
      "alt1.public_transport": 1,
      "alt1.bike_sharing": 0.7,
      "alt1.taxi": 10,
      "alt1.car_sharing": 13,
      "alt1.plan_fee": 5,
      "alt1.contract_level": 0,
      "alt2.public_transport": 3,
      "alt2.bike_sharing": 0.25,
      "alt2.taxi": 10,
      "alt2.car_sharing": 12,
      "alt2.contract_level": 3,
      "alt2.plan_fee": 1.15,
      "alt3.public_transport": 5,
      "alt3.bike_sharing": 0.25,
      "alt3.taxi": 8,
      "alt3.car_sharing": 12,
      "alt3.contract_level": 3,
      "alt3.plan_fee": 1.12
    },
    {
      "block": 16,
      "page": 2,
      "alt1.public_transport": 1,
      "alt1.bike_sharing": 0.6,
      "alt1.taxi": 12,
      "alt1.car_sharing": 12,
      "alt1.plan_fee": 5,
      "alt1.contract_level": 0,
      "alt2.public_transport": 3,
      "alt2.bike_sharing": 0.5,
      "alt2.taxi": 8,
      "alt2.car_sharing": 12,
      "alt2.contract_level": 1,
      "alt2.plan_fee": 1.2,
      "alt3.public_transport": 5,
      "alt3.bike_sharing": 0.25,
      "alt3.taxi": 6,
      "alt3.car_sharing": 8,
      "alt3.contract_level": 2,
      "alt3.plan_fee": 0.85
    },
    {
      "block": 16,
      "page": 3,
      "alt1.public_transport": 1,
      "alt1.bike_sharing": 0.3,
      "alt1.taxi": 10,
      "alt1.car_sharing": 14,
      "alt1.plan_fee": 10,
      "alt1.contract_level": 0,
      "alt2.public_transport": 2,
      "alt2.bike_sharing": 0.3,
      "alt2.taxi": 6,
      "alt2.car_sharing": 12,
      "alt2.contract_level": 2,
      "alt2.plan_fee": 0.95,
      "alt3.public_transport": 4,
      "alt3.bike_sharing": 0.3,
      "alt3.taxi": 6,
      "alt3.car_sharing": 10,
      "alt3.contract_level": 2,
      "alt3.plan_fee": 1.12
    },
    {
      "block": 17,
      "page": 1,
      "alt1.public_transport": 1,
      "alt1.bike_sharing": 0.7,
      "alt1.taxi": 10,
      "alt1.car_sharing": 12,
      "alt1.plan_fee": 5,
      "alt1.contract_level": 0,
      "alt2.public_transport": 2,
      "alt2.bike_sharing": 0.5,
      "alt2.taxi": 10,
      "alt2.car_sharing": 12,
      "alt2.contract_level": 1,
      "alt2.plan_fee": 1.05,
      "alt3.public_transport": 5,
      "alt3.bike_sharing": 0.3,
      "alt3.taxi": 5.5,
      "alt3.car_sharing": 12,
      "alt3.contract_level": 2,
      "alt3.plan_fee": 1.12
    },
    {
      "block": 17,
      "page": 2,
      "alt1.public_transport": 1,
      "alt1.bike_sharing": 0.7,
      "alt1.taxi": 10,
      "alt1.car_sharing": 15,
      "alt1.plan_fee": 18,
      "alt1.contract_level": 0,
      "alt2.public_transport": 2,
      "alt2.bike_sharing": 0.5,
      "alt2.taxi": 10,
      "alt2.car_sharing": 12,
      "alt2.contract_level": 1,
      "alt2.plan_fee": 1,
      "alt3.public_transport": 5,
      "alt3.bike_sharing": 0.2,
      "alt3.taxi": 5.5,
      "alt3.car_sharing": 8,
      "alt3.contract_level": 3,
      "alt3.plan_fee": 0.85
    },
    {
      "block": 17,
      "page": 3,
      "alt1.public_transport": 1,
      "alt1.bike_sharing": 0.6,
      "alt1.taxi": 12,
      "alt1.car_sharing": 14,
      "alt1.plan_fee": 10,
      "alt1.contract_level": 0,
      "alt2.public_transport": 3,
      "alt2.bike_sharing": 0.5,
      "alt2.taxi": 6,
      "alt2.car_sharing": 13,
      "alt2.contract_level": 1,
      "alt2.plan_fee": 1,
      "alt3.public_transport": 4,
      "alt3.bike_sharing": 0.2,
      "alt3.taxi": 5,
      "alt3.car_sharing": 8,
      "alt3.contract_level": 2,
      "alt3.plan_fee": 0.8
    },
    {
      "block": 18,
      "page": 1,
      "alt1.public_transport": 1,
      "alt1.bike_sharing": 0.7,
      "alt1.taxi": 10,
      "alt1.car_sharing": 14,
      "alt1.plan_fee": 5,
      "alt1.contract_level": 0,
      "alt2.public_transport": 2,
      "alt2.bike_sharing": 0.5,
      "alt2.taxi": 8,
      "alt2.car_sharing": 13,
      "alt2.contract_level": 2,
      "alt2.plan_fee": 0.88,
      "alt3.public_transport": 5,
      "alt3.bike_sharing": 0.3,
      "alt3.taxi": 8,
      "alt3.car_sharing": 12,
      "alt3.contract_level": 4,
      "alt3.plan_fee": 0.88
    },
    {
      "block": 18,
      "page": 2,
      "alt1.public_transport": 1,
      "alt1.bike_sharing": 0.7,
      "alt1.taxi": 10,
      "alt1.car_sharing": 15,
      "alt1.plan_fee": 10,
      "alt1.contract_level": 0,
      "alt2.public_transport": 3,
      "alt2.bike_sharing": 0.3,
      "alt2.taxi": 10,
      "alt2.car_sharing": 13,
      "alt2.contract_level": 1,
      "alt2.plan_fee": 1.12,
      "alt3.public_transport": 4,
      "alt3.bike_sharing": 0.3,
      "alt3.taxi": 8,
      "alt3.car_sharing": 10,
      "alt3.contract_level": 1,
      "alt3.plan_fee": 1.05
    },
    {
      "block": 18,
      "page": 3,
      "alt1.public_transport": 1,
      "alt1.bike_sharing": 0.5,
      "alt1.taxi": 10,
      "alt1.car_sharing": 13,
      "alt1.plan_fee": 20,
      "alt1.contract_level": 0,
      "alt2.public_transport": 2,
      "alt2.bike_sharing": 0.3,
      "alt2.taxi": 8,
      "alt2.car_sharing": 12,
      "alt2.contract_level": 1,
      "alt2.plan_fee": 1.2,
      "alt3.public_transport": 5,
      "alt3.bike_sharing": 0.3,
      "alt3.taxi": 5,
      "alt3.car_sharing": 8,
      "alt3.contract_level": 3,
      "alt3.plan_fee": 0.8
    },
    {
      "block": 19,
      "page": 1,
      "alt1.public_transport": 1,
      "alt1.bike_sharing": 0.5,
      "alt1.taxi": 8,
      "alt1.car_sharing": 12,
      "alt1.plan_fee": 0,
      "alt1.contract_level": 0,
      "alt2.public_transport": 2,
      "alt2.bike_sharing": 0.3,
      "alt2.taxi": 6,
      "alt2.car_sharing": 10,
      "alt2.contract_level": 1,
      "alt2.plan_fee": 1.12,
      "alt3.public_transport": 4,
      "alt3.bike_sharing": 0.25,
      "alt3.taxi": 5,
      "alt3.car_sharing": 10,
      "alt3.contract_level": 1,
      "alt3.plan_fee": 0.8
    },
    {
      "block": 19,
      "page": 2,
      "alt1.public_transport": 1,
      "alt1.bike_sharing": 0.6,
      "alt1.taxi": 10,
      "alt1.car_sharing": 13,
      "alt1.plan_fee": 18,
      "alt1.contract_level": 0,
      "alt2.public_transport": 2,
      "alt2.bike_sharing": 0.6,
      "alt2.taxi": 6,
      "alt2.car_sharing": 13,
      "alt2.contract_level": 3,
      "alt2.plan_fee": 1.12,
      "alt3.public_transport": 4,
      "alt3.bike_sharing": 0.3,
      "alt3.taxi": 5.5,
      "alt3.car_sharing": 13,
      "alt3.contract_level": 1,
      "alt3.plan_fee": 1.12
    },
    {
      "block": 19,
      "page": 3,
      "alt1.public_transport": 1,
      "alt1.bike_sharing": 0.7,
      "alt1.taxi": 10,
      "alt1.car_sharing": 15,
      "alt1.plan_fee": 10,
      "alt1.contract_level": 0,
      "alt2.public_transport": 3,
      "alt2.bike_sharing": 0.6,
      "alt2.taxi": 5.5,
      "alt2.car_sharing": 13,
      "alt2.contract_level": 3,
      "alt2.plan_fee": 0.85,
      "alt3.public_transport": 4,
      "alt3.bike_sharing": 0.25,
      "alt3.taxi": 5,
      "alt3.car_sharing": 13,
      "alt3.contract_level": 2,
      "alt3.plan_fee": 0.88
    },
    {
      "block": 20,
      "page": 1,
      "alt1.public_transport": 1,
      "alt1.bike_sharing": 0.5,
      "alt1.taxi": 10,
      "alt1.car_sharing": 14,
      "alt1.plan_fee": 18,
      "alt1.contract_level": 0,
      "alt2.public_transport": 3,
      "alt2.bike_sharing": 0.5,
      "alt2.taxi": 10,
      "alt2.car_sharing": 14,
      "alt2.contract_level": 2,
      "alt2.plan_fee": 0.85,
      "alt3.public_transport": 5,
      "alt3.bike_sharing": 0.2,
      "alt3.taxi": 8,
      "alt3.car_sharing": 13,
      "alt3.contract_level": 3,
      "alt3.plan_fee": 1
    },
    {
      "block": 20,
      "page": 2,
      "alt1.public_transport": 1,
      "alt1.bike_sharing": 0.7,
      "alt1.taxi": 12,
      "alt1.car_sharing": 14,
      "alt1.plan_fee": 5,
      "alt1.contract_level": 0,
      "alt2.public_transport": 2,
      "alt2.bike_sharing": 0.6,
      "alt2.taxi": 6,
      "alt2.car_sharing": 14,
      "alt2.contract_level": 2,
      "alt2.plan_fee": 1.2,
      "alt3.public_transport": 4,
      "alt3.bike_sharing": 0.3,
      "alt3.taxi": 5.5,
      "alt3.car_sharing": 13,
      "alt3.contract_level": 4,
      "alt3.plan_fee": 1.05
    },
    {
      "block": 20,
      "page": 3,
      "alt1.public_transport": 1,
      "alt1.bike_sharing": 0.7,
      "alt1.taxi": 8,
      "alt1.car_sharing": 12,
      "alt1.plan_fee": 0,
      "alt1.contract_level": 0,
      "alt2.public_transport": 3,
      "alt2.bike_sharing": 0.6,
      "alt2.taxi": 5.5,
      "alt2.car_sharing": 12,
      "alt2.contract_level": 1,
      "alt2.plan_fee": 1.2,
      "alt3.public_transport": 4,
      "alt3.bike_sharing": 0.2,
      "alt3.taxi": 5.5,
      "alt3.car_sharing": 8,
      "alt3.contract_level": 3,
      "alt3.plan_fee": 1
    },
    {
      "block": 21,
      "page": 1,
      "alt1.public_transport": 1,
      "alt1.bike_sharing": 0.7,
      "alt1.taxi": 8,
      "alt1.car_sharing": 13,
      "alt1.plan_fee": 20,
      "alt1.contract_level": 0,
      "alt2.public_transport": 2,
      "alt2.bike_sharing": 0.25,
      "alt2.taxi": 8,
      "alt2.car_sharing": 13,
      "alt2.contract_level": 3,
      "alt2.plan_fee": 1.2,
      "alt3.public_transport": 5,
      "alt3.bike_sharing": 0.25,
      "alt3.taxi": 5,
      "alt3.car_sharing": 8,
      "alt3.contract_level": 3,
      "alt3.plan_fee": 1.2
    },
    {
      "block": 21,
      "page": 2,
      "alt1.public_transport": 1,
      "alt1.bike_sharing": 0.7,
      "alt1.taxi": 12,
      "alt1.car_sharing": 15,
      "alt1.plan_fee": 18,
      "alt1.contract_level": 0,
      "alt2.public_transport": 2,
      "alt2.bike_sharing": 0.6,
      "alt2.taxi": 6,
      "alt2.car_sharing": 13,
      "alt2.contract_level": 3,
      "alt2.plan_fee": 0.88,
      "alt3.public_transport": 5,
      "alt3.bike_sharing": 0.3,
      "alt3.taxi": 5,
      "alt3.car_sharing": 12,
      "alt3.contract_level": 2,
      "alt3.plan_fee": 1.2
    },
    {
      "block": 21,
      "page": 3,
      "alt1.public_transport": 1,
      "alt1.bike_sharing": 0.6,
      "alt1.taxi": 8,
      "alt1.car_sharing": 14,
      "alt1.plan_fee": 18,
      "alt1.contract_level": 0,
      "alt2.public_transport": 2,
      "alt2.bike_sharing": 0.5,
      "alt2.taxi": 8,
      "alt2.car_sharing": 13,
      "alt2.contract_level": 1,
      "alt2.plan_fee": 1,
      "alt3.public_transport": 5,
      "alt3.bike_sharing": 0.25,
      "alt3.taxi": 8,
      "alt3.car_sharing": 8,
      "alt3.contract_level": 2,
      "alt3.plan_fee": 1.12
    },
    {
      "block": 22,
      "page": 1,
      "alt1.public_transport": 1,
      "alt1.bike_sharing": 0.7,
      "alt1.taxi": 10,
      "alt1.car_sharing": 14,
      "alt1.plan_fee": 5,
      "alt1.contract_level": 0,
      "alt2.public_transport": 3,
      "alt2.bike_sharing": 0.5,
      "alt2.taxi": 10,
      "alt2.car_sharing": 13,
      "alt2.contract_level": 1,
      "alt2.plan_fee": 1.15,
      "alt3.public_transport": 4,
      "alt3.bike_sharing": 0.25,
      "alt3.taxi": 6,
      "alt3.car_sharing": 13,
      "alt3.contract_level": 2,
      "alt3.plan_fee": 1.05
    },
    {
      "block": 22,
      "page": 2,
      "alt1.public_transport": 1,
      "alt1.bike_sharing": 0.6,
      "alt1.taxi": 12,
      "alt1.car_sharing": 13,
      "alt1.plan_fee": 18,
      "alt1.contract_level": 0,
      "alt2.public_transport": 2,
      "alt2.bike_sharing": 0.3,
      "alt2.taxi": 8,
      "alt2.car_sharing": 13,
      "alt2.contract_level": 3,
      "alt2.plan_fee": 1.15,
      "alt3.public_transport": 5,
      "alt3.bike_sharing": 0.3,
      "alt3.taxi": 5,
      "alt3.car_sharing": 12,
      "alt3.contract_level": 1,
      "alt3.plan_fee": 0.85
    },
    {
      "block": 22,
      "page": 3,
      "alt1.public_transport": 1,
      "alt1.bike_sharing": 0.6,
      "alt1.taxi": 10,
      "alt1.car_sharing": 12,
      "alt1.plan_fee": 10,
      "alt1.contract_level": 0,
      "alt2.public_transport": 2,
      "alt2.bike_sharing": 0.5,
      "alt2.taxi": 8,
      "alt2.car_sharing": 12,
      "alt2.contract_level": 1,
      "alt2.plan_fee": 1.15,
      "alt3.public_transport": 4,
      "alt3.bike_sharing": 0.2,
      "alt3.taxi": 5.5,
      "alt3.car_sharing": 12,
      "alt3.contract_level": 2,
      "alt3.plan_fee": 0.8
    },
    {
      "block": 23,
      "page": 1,
      "alt1.public_transport": 1,
      "alt1.bike_sharing": 0.6,
      "alt1.taxi": 12,
      "alt1.car_sharing": 13,
      "alt1.plan_fee": 18,
      "alt1.contract_level": 0,
      "alt2.public_transport": 3,
      "alt2.bike_sharing": 0.6,
      "alt2.taxi": 5.5,
      "alt2.car_sharing": 13,
      "alt2.contract_level": 1,
      "alt2.plan_fee": 1.12,
      "alt3.public_transport": 5,
      "alt3.bike_sharing": 0.5,
      "alt3.taxi": 5.5,
      "alt3.car_sharing": 10,
      "alt3.contract_level": 1,
      "alt3.plan_fee": 0.88
    },
    {
      "block": 23,
      "page": 2,
      "alt1.public_transport": 1,
      "alt1.bike_sharing": 0.5,
      "alt1.taxi": 10,
      "alt1.car_sharing": 14,
      "alt1.plan_fee": 18,
      "alt1.contract_level": 0,
      "alt2.public_transport": 2,
      "alt2.bike_sharing": 0.3,
      "alt2.taxi": 10,
      "alt2.car_sharing": 12,
      "alt2.contract_level": 2,
      "alt2.plan_fee": 1.15,
      "alt3.public_transport": 5,
      "alt3.bike_sharing": 0.25,
      "alt3.taxi": 6,
      "alt3.car_sharing": 12,
      "alt3.contract_level": 4,
      "alt3.plan_fee": 0.85
    },
    {
      "block": 23,
      "page": 3,
      "alt1.public_transport": 1,
      "alt1.bike_sharing": 0.7,
      "alt1.taxi": 8,
      "alt1.car_sharing": 13,
      "alt1.plan_fee": 10,
      "alt1.contract_level": 0,
      "alt2.public_transport": 2,
      "alt2.bike_sharing": 0.25,
      "alt2.taxi": 8,
      "alt2.car_sharing": 13,
      "alt2.contract_level": 2,
      "alt2.plan_fee": 1,
      "alt3.public_transport": 5,
      "alt3.bike_sharing": 0.2,
      "alt3.taxi": 5.5,
      "alt3.car_sharing": 8,
      "alt3.contract_level": 4,
      "alt3.plan_fee": 0.85
    }
  ],

  "value_map": {
    "payg": {
      "public_transport": [
        { "symbol": "option_1", "value": 1, "price": 0 }
      ],

      "bike_sharing": [
        { "symbol": "option_3", "value": 0.30 },
        { "symbol": "option_4", "value": 0.50 },
        { "symbol": "option_5", "value": 0.60 },
        { "symbol": "option_6", "value": 0.70 }
      ],

      "taxi": [
        { "symbol": "option_4", "value": 8 },
        { "symbol": "option_5", "value": 10 },
        { "symbol": "option_6", "value": 12 }
      ],

      "car_sharing": [
        { "symbol": "option_3", "value": 12 },
        { "symbol": "option_4", "value": 13 },
        { "symbol": "option_5", "value": 14 },
        { "symbol": "option_6", "value": 15 }
      ],

      "plan_fee": [
        { "symbol": "option_1", "value": 0 },
        { "symbol": "option_2", "value": 5 },
        { "symbol": "option_3", "value": 10 },
        { "symbol": "option_4", "value": 18 },
        { "symbol": "option_5", "value": 20 }
      ],

      "contract_level": [
        { "symbol": "option_1", "value": 0 }
      ]
    },

    "weekly": {
      "public_transport": [
        { "symbol": "option_2", "value": 2, "price": 25 },
        { "symbol": "option_3", "value": 3, "price": 38 }
      ],

      "bike_sharing": [
        { "symbol": "option_2", "value": 0.25 },
        { "symbol": "option_3", "value": 0.30 },
        { "symbol": "option_4", "value": 0.50 },
        { "symbol": "option_5", "value": 0.60 }
      ],

      "taxi": [
        { "symbol": "option_2", "value": 5.5 },
        { "symbol": "option_3", "value": 6 },
        { "symbol": "option_4", "value": 8 },
        { "symbol": "option_5", "value": 10 }
      ],

      "car_sharing": [
        { "symbol": "option_2", "value": 10 },
        { "symbol": "option_3", "value": 12 },
        { "symbol": "option_4", "value": 13 },
        { "symbol": "option_5", "value": 14 }
      ],

      "plan_fee": [
        { "symbol": "multiplier", "value": 0.80, "multiplier": 0.80 },
        { "symbol": "multiplier", "value": 0.85, "multiplier": 0.85 },
        { "symbol": "multiplier", "value": 0.88, "multiplier": 0.88 },
        { "symbol": "multiplier", "value": 0.95, "multiplier": 0.95 },
        { "symbol": "multiplier", "value": 1.00, "multiplier": 1.00 },
        { "symbol": "multiplier", "value": 1.05, "multiplier": 1.05 },
        { "symbol": "multiplier", "value": 1.12, "multiplier": 1.12 },
        { "symbol": "multiplier", "value": 1.15, "multiplier": 1.15 },
        { "symbol": "multiplier", "value": 1.20, "multiplier": 1.20 }
      ],

      "contract_level": [
        { "symbol": "option_2", "value": 1 },
        { "symbol": "option_3", "value": 2 },
        { "symbol": "option_4", "value": 3 }
      ]
    },

    "monthly": {
      "public_transport": [
        { "symbol": "option_4", "value": 4, "price": 80 },
        { "symbol": "option_5", "value": 5, "price": 118 }
      ],

      "bike_sharing": [
        { "symbol": "option_1", "value": 0.20 },
        { "symbol": "option_2", "value": 0.25 },
        { "symbol": "option_3", "value": 0.30 },
        { "symbol": "option_4", "value": 0.50 }
      ],

      "taxi": [
        { "symbol": "option_1", "value": 5 },
        { "symbol": "option_2", "value": 5.5 },
        { "symbol": "option_3", "value": 6 },
        { "symbol": "option_4", "value": 8 }
      ],

      "car_sharing": [
        { "symbol": "option_1", "value": 8 },
        { "symbol": "option_2", "value": 10 },
        { "symbol": "option_3", "value": 12 },
        { "symbol": "option_4", "value": 13 }
      ],

      "plan_fee": [
        { "symbol": "multiplier", "value": 0.80, "multiplier": 0.80 },
        { "symbol": "multiplier", "value": 0.85, "multiplier": 0.85 },
        { "symbol": "multiplier", "value": 0.88, "multiplier": 0.88 },
        { "symbol": "multiplier", "value": 0.95, "multiplier": 0.95 },
        { "symbol": "multiplier", "value": 1.00, "multiplier": 1.00 },
        { "symbol": "multiplier", "value": 1.05, "multiplier": 1.05 },
        { "symbol": "multiplier", "value": 1.12, "multiplier": 1.12 },
        { "symbol": "multiplier", "value": 1.15, "multiplier": 1.15 },
        { "symbol": "multiplier", "value": 1.20, "multiplier": 1.20 }
      ],

      "contract_level": [
        { "symbol": "option_5", "value": 1 },
        { "symbol": "option_3", "value": 2 },
        { "symbol": "option_6", "value": 3 },
        { "symbol": "option_7", "value": 4 }
      ]
    }
  }
}