<?xml version="1.0" encoding="utf-8"?>
<!-- Generator: Adobe Illustrator 15.0.2, SVG Export Plug-In . SVG Version: 6.00 Build 0)  -->
<!DOCTYPE svg PUBLIC "-//W3C//DTD SVG 1.1//EN" "http://www.w3.org/Graphics/SVG/1.1/DTD/svg11.dtd">
<svg version="1.1"
	 id="svg2575" xmlns:dc="http://purl.org/dc/elements/1.1/" xmlns:cc="http://web.resource.org/cc/" xmlns:svg="http://www.w3.org/2000/svg" xmlns:rdf="http://www.w3.org/1999/02/22-rdf-syntax-ns#" xmlns:sodipodi="http://sodipodi.sourceforge.net/DTD/sodipodi-0.dtd" xmlns:inkscape="http://www.inkscape.org/namespaces/inkscape" inkscape:export-ydpi="90" inkscape:export-xdpi="90" inkscape:export-filename="I:\Workspace\phphotdoc2\template\logo.png" inkscape:output_extension="org.inkscape.output.svg.inkscape" sodipodi:docname="document.svg" sodipodi:docbase="E:\Documents\Wektorowe" inkscape:version="0.45.1" sodipodi:version="0.32"
	 xmlns="http://www.w3.org/2000/svg" xmlns:xlink="http://www.w3.org/1999/xlink" x="0px" y="0px" width="86.684px"
	 height="120.273px" viewBox="0 0 86.684 120.273" enable-background="new 0 0 86.684 120.273" xml:space="preserve">
<sodipodi:namedview  width="135px" height="135px" inkscape:window-y="0" inkscape:window-x="0" inkscape:window-height="781" inkscape:window-width="1280" inkscape:current-layer="layer1" inkscape:document-units="px" inkscape:cy="73.28181" inkscape:cx="67.5" inkscape:zoom="5.6888889" inkscape:pageshadow="2" inkscape:pageopacity="0.0" borderopacity="1.0" bordercolor="#666666" id="base" pagecolor="#ffffff">
	</sodipodi:namedview>
<g id="layer1" transform="translate(-116.68875,-248.60039)" inkscape:groupmode="layer" inkscape:label="Warstwa 1">
	<g id="g2774">
		<path id="path2601" fill="#EEEEEE" stroke="#333333" stroke-width="2" d="M201.294,277.816v83.339
			c0,3.303-2.659,5.962-5.963,5.962h-70.922c-3.303,0-5.962-2.659-5.962-5.962V256.968c0-3.303,2.659-5.962,5.962-5.962l0,0h51.51"
			/>
		<path id="rect2583" fill="none" stroke="#333333" stroke-width="2" d="M200.667,278.444h-19.413c-3.304,0-5.962-2.659-5.962-5.962
			v-20.85"/>
		<path id="path2603" sodipodi:nodetypes="cc" fill="none" stroke="#333333" stroke-width="2" d="M174.479,250.38l27.112,28.709"/>
	</g>
</g>
</svg>
