<?xml version="1.0" encoding="UTF-8"?>
<svg width="60px" height="60px" viewBox="0 0 60 60" version="1.1" xmlns="http://www.w3.org/2000/svg" xmlns:xlink="http://www.w3.org/1999/xlink">
    <!-- Generator: Sketch 49.2 (51160) - http://www.bohemiancoding.com/sketch -->
    <title>Public Transport Icon</title>
    <desc>Created with Sketch.</desc>
    <defs></defs>
    <g id="Survey" stroke="none" stroke-width="1" fill="none" fill-rule="evenodd">
        <g transform="translate(-572.000000, -991.000000)" id="All-your-journeys-covered">
            <g transform="translate(543.000000, 913.000000)">
                <g id="Icons" transform="translate(0.000000, 73.000000)">
                    <g id="Public-Transport" transform="translate(0.000000, 5.000000)">
                        <g id="Public-Transport-Icon" transform="translate(29.000000, 0.000000)">
                            <circle id="Oval" fill="#2B6993" cx="30" cy="30" r="30"></circle>
                            <g id="bus-icon" transform="translate(17.000000, 15.000000)" fill="#FFFFFF" fill-rule="nonzero">
                                <path d="M25.3880597,11.4821918 L25.1543284,11.4821918 L25.1543284,3.69863014 C25.1543284,1.65593314 23.5305253,0 21.5274627,0 L5.4080597,0 C3.40499712,0 1.78119403,1.65593314 1.78119403,3.69863014 L1.78119403,11.4821918 L1.26940299,11.4821918 C0.935245424,11.4789081 0.613552554,11.6114174 0.375373787,11.8504536 C0.137194979,12.0894898 0.00212663284,12.415386 0,12.7561644 L0,15.5260274 C0.00221202537,16.2309562 0.562032484,16.8018538 1.25328358,16.8041096 L1.6119403,16.8041096 C1.66835821,16.8041096 1.72477612,16.8041096 1.77716418,16.8041096 L1.77716418,27.1931507 L1.77716418,28.5575342 C1.77938499,29.2958391 2.36691257,29.8931542 3.09089552,29.8931507 L5.68208955,29.8931507 C6.40449926,29.8908943 6.98957846,29.2942382 6.99179104,28.5575342 L6.99179104,27.1931507 L19.7986567,27.1931507 L19.7986567,28.5575342 C19.8008693,29.2942382 20.3859485,29.8908943 21.1083582,29.8931507 L23.7076119,29.8931507 C24.4300216,29.8908943 25.0151008,29.2942382 25.0173134,28.5575342 L25.0173134,27.1931507 L25.138209,27.1931507 L25.138209,16.8 L25.3880597,16.8 C26.1048143,16.7865891 26.6795701,16.1913309 26.6816418,15.460274 L26.6816418,12.8178082 C26.6795291,12.087449 26.1041667,11.4933905 25.3880597,11.4821918 Z M4.62223881,25.5328767 C4.11985654,25.532874 3.66701931,25.2240365 3.47514457,24.7505522 C3.2832698,24.2770678 3.39020181,23.7323238 3.74601687,23.3706463 C4.10183194,23.0089689 4.63635126,22.9016931 5.10002218,23.0989032 C5.5636931,23.2961133 5.86506396,23.7589127 5.86343284,24.2712329 C5.86451554,24.6068924 5.7339651,24.9290629 5.50084387,25.166025 C5.26772261,25.4029872 4.95138021,25.5350724 4.62223881,25.5328767 Z M22.2608955,25.5328767 C21.7581497,25.5345386 21.3040758,25.2267585 21.1109298,24.7534075 C20.9177837,24.2800565 21.0237186,23.7346382 21.3792155,23.3721071 C21.7347123,23.0095761 22.2695479,22.901545 22.7337145,23.0985129 C23.1978811,23.2954807 23.4996894,23.7585392 23.4980597,24.2712329 C23.4980597,24.9680195 22.9441624,25.5328767 22.2608955,25.5328767 Z M23.4980597,21.2630137 L9.44597015,21.2630137 L3.40119403,17.0383562 L3.40119403,11.5068493 L23.4980597,11.5068493 L23.4980597,21.2630137 Z M23.5988111,8.19863014 L3.2681882,8.19863014 L3.26820896,3.26712329 C3.26606592,2.84095866 3.43002193,2.43138107 3.72400736,2.12849577 C4.01799279,1.82561047 4.41792509,1.6542291 4.8358209,1.65205479 L22.0191045,1.65205479 C22.4383956,1.65095979 22.840823,1.82033371 23.1373076,2.12268481 C23.4337922,2.42503586 23.5998797,2.83542608 23.598806,3.2630137 L23.5988111,8.19863014 Z" id="Shape"></path>
                            </g>
                        </g>
                    </g>
                </g>
            </g>
        </g>
    </g>
</svg>